<?xml version="1.0" encoding="utf-8"?>
<!-- Generator: Adobe Illustrator 21.0.0, SVG Export Plug-In . SVG Version: 6.00 Build 0)  -->
<svg version="1.1" id="Layer_1" xmlns="http://www.w3.org/2000/svg" xmlns:xlink="http://www.w3.org/1999/xlink" x="0px" y="0px"
	 viewBox="0 0 30.9 41.7" style="enable-background:new 0 0 30.9 41.7;" xml:space="preserve">
<style type="text/css">
	.st0{fill:#565656;}
</style>
<path class="st0" d="M12.3,19.3c0,0.7-0.5,1.1-1.3,1.1c-0.2,0-0.4,0-0.5,0v-2c0.1,0,0.3-0.1,0.6-0.1C11.9,18.2,12.3,18.6,12.3,19.3z
	 M16.2,18.3c-0.3,0-0.6,0-0.7,0.1v4.3c0.1,0,0.4,0,0.6,0c1.4,0,2.2-0.8,2.2-2.3C18.3,19,17.5,18.3,16.2,18.3z M30.9,9.6v29.8
	c0,1.2-1,2.2-2.2,2.2H2.2c-1.2,0-2.2-1-2.2-2.2V2.2C0,1,1,0,2.2,0h18.1L30.9,9.6z M8.5,22.8c0-0.4-0.3-0.7-0.7-0.7
	c-0.4,0-0.7,0.3-0.7,0.7c0,0.4,0.3,0.7,0.7,0.7h0C8.2,23.6,8.5,23.3,8.5,22.8z M13.4,19.2c0-0.6-0.2-1-0.6-1.3
	c-0.4-0.3-1-0.5-1.8-0.5c-0.7,0-1.3,0.1-1.7,0.1v5.9h1.1v-2.3c0.1,0,0.3,0,0.5,0c0.8,0,1.4-0.2,1.9-0.6
	C13.2,20.3,13.4,19.8,13.4,19.2z M19.4,20.3c0-1-0.4-1.7-0.9-2.2c-0.5-0.5-1.3-0.7-2.4-0.7c-0.6,0-1.2,0-1.7,0.1v5.9
	c0.4,0,0.8,0.1,1.5,0.1c1.2,0,2.1-0.3,2.7-0.8C19.1,22.2,19.4,21.4,19.4,20.3z M23.8,17.4h-3.4v6h1.1v-2.6h2.2V20h-2.2v-1.7h2.3
	V17.4z"/>
</svg>
