<?xml version="1.0" encoding="utf-8"?>
<!-- Generator: Adobe Illustrator 21.0.0, SVG Export Plug-In . SVG Version: 6.00 Build 0)  -->
<svg version="1.1" id="Layer_1" xmlns="http://www.w3.org/2000/svg" xmlns:xlink="http://www.w3.org/1999/xlink" x="0px" y="0px"
	 viewBox="0 0 27.9 16" style="enable-background:new 0 0 27.9 16;" xml:space="preserve">
<style type="text/css">
	.st0{fill:#444444;}
</style>
<path class="st0" d="M24.1,0l-3.8,3.5l0.6,0.5l2.9-2.8v7.8h0.8V1.3l2.9,2.8l0.6-0.5L24.1,0z M14,11.6c-1.8,1.6-4.2,3.2-4.9,3.6
	c-0.7-0.4-3.1-1.9-4.8-3.6C1.9,9.4,0.8,7.2,0.8,5c0-2.4,1.9-4.3,4.3-4.3c1.6,0,3,0.9,3.8,2.3l0.3,0.6L9.5,3c0.7-1.4,2.2-2.3,3.8-2.3
	c2.4,0,4.3,1.9,4.3,4.3C17.5,7.3,16.4,9.4,14,11.6 M13.3,0c-1.7,0-3.2,0.8-4.1,2.1C8.2,0.8,6.7,0,5,0C2.3,0,0,2.3,0,5
	c0,2.4,1.3,4.8,3.8,7.1c2.1,2,5.1,3.7,5.2,3.8L9.1,16l0.2-0.1c0.1-0.1,3-1.8,5.2-3.8c2.6-2.3,3.8-4.6,3.8-7.1C18.3,2.3,16,0,13.3,0"
	/>
</svg>
