<?xml version="1.0" encoding="utf-8"?>
<!-- Generator: Adobe Illustrator 21.0.0, SVG Export Plug-In . SVG Version: 6.00 Build 0)  -->
<svg version="1.1" id="Layer_1" xmlns="http://www.w3.org/2000/svg" xmlns:xlink="http://www.w3.org/1999/xlink" x="0px" y="0px"
	 viewBox="0 0 28 24" style="enable-background:new 0 0 28 24;" xml:space="preserve">
<style type="text/css">
	.st0{fill:#444444;}
</style>
<g>
	<path class="st0" d="M7,0v20.2c0,1.5-1.2,2.7-2.7,2.7c-1.5,0-2.7-1.2-2.7-2.7V12c0-0.6,0.5-1.1,1.1-1.1s1.1,0.5,1.1,1.1v7.1h1.1V12
		c0-1.2-1-2.2-2.2-2.2c-1.2,0-2.2,1-2.2,2.2v8.2c0,2.1,1.7,3.8,3.8,3.8h18.5c2.1,0,3.8-1.7,3.8-3.8V0H7z M25.5,20.2
		c0,1.5-1.2,2.7-2.7,2.7H6.9C7.6,22.2,8,21.2,8,20.2V1.1h17.5V20.2z"/>
	<path class="st0" d="M22.2,12H11.3V4.4h10.9V12z M22.2,14.2H11.3v1.1h10.9V14.2z M19.5,17.5h-8.2v1.1h8.2V17.5z"/>
</g>
</svg>
