
<svg width="258px" height="117px" viewBox="1028 181 258 117" version="1.1" xmlns="http://www.w3.org/2000/svg" xmlns:xlink="http://www.w3.org/1999/xlink">
    <!-- Generator: Sketch 41 (35326) - http://www.bohemiancoding.com/sketch -->
    <desc>Created with Sketch.</desc>
    <defs>
        <polygon id="path-1" points="155.703481 0.454048764 0.000353668052 0.454048764 0.000353668052 115.791453 155.703481 115.791453 155.703481 0.454048764"></polygon>
    </defs>
    <text id="Welcome-to-The-OCR" stroke="none" fill="none" font-family="FrenteH1-Regular, Frente H1" font-size="28" font-style="condensed" font-weight="normal" letter-spacing="2.54545426">
        <tspan x="1099.96652" y="235" fill="#3A405B">Welcome to</tspan>
        <tspan x="1118.2607" y="269" fill="#3A405B">The OCR</tspan>
    </text>
    <g id="Page-1" stroke="none" stroke-width="1" fill="none" fill-rule="evenodd" transform="translate(1075.000000, 181.000000)">
        <path d="M27.0871491,113.923114 C21.0406063,112.051303 17.2246063,106.461397 14.3308063,101.153221 C10.9918063,95.0272093 8.74854343,88.312211 6.695172,81.6628583 C4.74356057,75.3481159 2.53482343,68.8765534 1.73164629,62.2983168 C0.780372,54.4992543 2.135052,46.5716358 5.23509771,39.3916478 C17.5625949,10.8421921 52.1955206,3.89652249 80.019612,3.66858637 C107.441206,3.44429722 141.823366,11.5159713 154.165401,39.1582412 C160.519041,53.3887495 157.429898,69.8493848 148.589498,82.2381691 C138.546149,96.3136808 121.301463,103.665988 104.636446,105.787618 C79.3000234,109.01337 53.091372,100.902491 30.7559606,89.3908048 C30.4761206,89.2467491 30.2162691,89.2996303 29.979132,89.4920084 C21.8301549,96.0538336 23.5082863,105.884263 27.4696577,114.393574 C27.8203663,115.146675 28.9270063,114.492043 28.5790234,113.743501 C26.8581891,110.046377 25.527132,106.231638 25.2945377,102.129699 C25.1873263,100.220506 25.5298577,98.3550768 26.1286063,96.5525579 C26.5202006,95.3754957 29.2713549,90.0727897 30.9485777,90.9362117 C37.992732,94.5676901 45.3121834,97.6594157 52.7888177,100.267005 C68.4035263,105.713767 85.120332,108.713406 101.664509,107.384083 C117.040263,106.150492 132.488703,100.429296 143.794966,89.689857 C153.714749,80.2678893 159.444201,66.7293951 158.759138,53.008552 C157.298155,23.7971698 127.983098,8.53456679 102.641223,4.15910491 C89.0026577,1.80315711 74.855292,1.81592153 61.162212,3.70870313 C47.6871891,5.57139715 34.1076806,8.94211659 22.7405434,16.7284147 C5.45315486,28.5692406 -4.03687371,49.8976798 2.08235486,70.4866942 C4.71448629,79.3452038 7.10584629,88.2584181 10.7828349,96.7577004 C13.9410291,104.059862 18.6347091,112.655789 26.7464349,115.166734 C27.5396177,115.412905 27.8766977,114.168373 27.0871491,113.923114" id="Fill-1" fill="#000000"></path>
        <g id="Group-5" transform="translate(0.000000, 0.457696)">
            <mask id="mask-2" fill="white">
                <use xlink:href="#path-1"></use>
            </mask>
            <g id="Clip-4"></g>
            <path d="M28.0472366,113.137737 C15.8178651,106.443709 8.71465371,92.8723923 4.743288,79.9812368 C0.747390857,67.008936 -0.464643429,52.4182886 4.48979657,39.5581324 C16.2403509,9.06119042 54.1068823,3.30534736 82.5306309,3.81318905 C99.2292651,4.11041775 116.374917,7.14014475 130.624042,16.3241471 C144.662379,25.3695644 155.261774,41.1181272 154.488579,58.2607474 C153.743551,74.7788226 141.745865,89.4287333 127.838362,97.2223254 C114.020808,104.96486 97.2667509,106.965227 81.6947451,105.907604 C72.8579794,105.306764 62.8555166,103.792356 54.879168,99.6904178 C47.9558537,96.1300555 41.7430423,91.1446365 34.4054194,88.402109 C28.8467794,86.3233316 24.9026709,90.0459844 24.2385051,95.5456272 C23.4316937,102.225067 26.2518994,108.911802 27.7174251,115.29766 C27.9800023,115.034166 28.243488,114.76976 28.5069737,114.506266 C21.406488,112.582485 16.5647109,105.988749 12.947688,99.9776173 C9.233448,93.8069305 6.65310514,87.0554624 4.99405371,80.0596468 C2.56089943,69.7961389 1.77407657,59.2116969 2.46368229,48.6947241 C2.94249943,41.3907388 4.90319657,34.642006 9.16621371,28.6445507 C16.9145109,17.7419099 30.4176994,12.2595901 42.801528,8.74207984 C55.769568,5.05863204 69.5117109,2.824858 82.9540251,2.03528726 C98.3034309,1.13448369 114.903031,2.25775292 128.725128,9.59638444 C142.692597,17.0125143 151.135042,32.4592897 152.964905,47.8376842 C154.727534,62.6343858 150.023859,78.9710239 139.082842,89.3494116 C128.788728,99.115107 113.806385,103.372954 100.141471,105.422555 C89.655648,106.994403 78.7191737,107.135723 68.2706023,105.216501 C54.3403851,102.657234 41.0370823,96.1564961 29.3392251,88.3036406 C29.0911851,88.1367914 28.7677337,88.2179366 28.561488,88.4048443 C20.6787223,95.4890991 25.4423623,106.848524 27.9273051,115.336865 C28.160808,116.134642 29.4000994,115.794561 29.1665966,114.994961 C27.1168594,107.994587 23.3799051,99.5828319 26.8660937,92.4712248 C27.340368,91.5020404 28.0617737,90.6905877 28.7977166,89.9183401 C29.2556366,89.4396743 31.111848,91.0124336 31.4262137,91.2148408 C33.3114994,92.4292845 35.2467566,93.5644064 37.1947337,94.672176 C41.243328,96.9743309 45.4509223,99.0403439 49.753008,100.818246 C63.6105394,106.54856 77.6697737,108.627337 92.5794309,107.546008 C106.145311,106.561324 120.029191,103.252604 131.838802,96.3096691 C143.494865,89.4569974 150.755259,77.9033711 153.508231,64.7596623 C156.408391,50.9129985 153.488242,36.129973 145.953459,24.2399129 C138.117031,11.8739222 125.778631,5.26195106 111.759374,2.40727902 C97.478448,-0.498450721 82.4706651,0.158917067 68.133408,2.28419351 C55.3734309,4.17515161 42.4926137,6.65144969 30.5194594,11.5940167 C22.1351623,15.0549988 14.2051509,20.0221829 8.591088,27.2787574 C1.63052229,36.2758522 0.750116571,47.4702512 0.944550857,58.4795661 C1.16079086,70.7470884 3.45493371,83.2589583 8.58291086,94.4360342 C12.4343451,102.829554 18.6444309,113.17056 28.1653509,115.748974 C28.6532537,115.881177 29.063928,115.429863 28.955808,114.955756 C27.6038537,109.060416 20.0063794,84.8472172 34.0637966,89.6448168 C40.0494651,91.6880362 45.4763623,95.6997121 50.8769109,98.9099645 C55.992168,101.947897 61.4008937,103.716681 67.1866766,105.061505 C95.5141166,111.647035 129.745454,106.042542 147.552545,81.0762419 C155.960465,69.2864737 158.097425,54.4013329 152.868597,40.8628388 C147.380825,26.6523889 134.761677,15.5081358 120.955934,9.73496961 C106.039917,3.49590196 89.6856309,2.14652009 73.6802366,2.56592256 C59.3775051,2.9415613 45.0920366,5.0741317 31.913208,10.8846794 C21.9888823,15.2592296 13.2111737,22.0854607 7.28456229,31.2557869 C1.63506514,39.9966815 -0.341986286,50.1644562 0.0477908571,60.446199 C0.785550857,79.9666489 9.34338514,104.368579 27.3994251,114.250066 C28.1271909,114.64941 28.7750023,113.535258 28.0472366,113.137737" id="Fill-3" fill="#000000" mask="url(#mask-2)"></path>
        </g>
    </g>
</svg>