
<svg width="45px" height="45px" viewBox="0 0 45 45" version="1.1" xmlns="http://www.w3.org/2000/svg" xmlns:xlink="http://www.w3.org/1999/xlink">
    <g id="Page-1" stroke="none" stroke-width="1" fill="none" fill-rule="evenodd">
        <g id="Dashboard-Setting-Base-location" transform="translate(-401.000000, -949.000000)" fill-rule="nonzero">
            <g id="All-Users" transform="translate(370.000000, 933.000000)">
                <g id="Group-Headings" transform="translate(31.000000, 16.000000)">
                    <g id="Group-7">
                        <circle id="Oval-3" fill="#005FB9" cx="22.5" cy="22.5" r="22.5"></circle>
                        <path d="M22.003906,9.546875 L22.003906,9.5488281 C17.988494,9.4628281 14.3037078,12.67055 13.8242188,16.65625 C13.4485468,19.26475 14.4231547,21.962691 16.3125,23.775391 C18.038386,25.730391 19.762326,27.687131 21.484375,29.644531 C21.527105,29.693531 21.578835,29.732519 21.636719,29.761719 C21.809462,29.847719 21.999332,29.842688 22.175781,29.804688 C22.032392,29.415188 21.93128,29.006131 21.880859,28.582031 C20.266749,26.747831 18.652202,24.913831 17.035156,23.082031 C17.025756,23.072031 17.016029,23.061734 17.005859,23.052734 C15.3513571,21.465334 14.4847,19.060869 14.8125,16.792969 L14.8144531,16.78125 C15.2246951,13.33905 18.522669,10.4671219 21.988281,10.5449219 L22.003906,10.5449219 C24.978714,10.5179219 27.827051,12.4896875 28.800781,15.304688 L28.806641,15.320312 C29.68706,17.612312 29.225681,20.340719 27.695312,22.261719 C27.621592,22.349719 27.542855,22.434084 27.46875,22.521484 C27.86238,22.536484 28.244813,22.593453 28.613281,22.689453 C30.248097,20.505253 30.723865,17.540456 29.742188,14.9726562 C28.619374,11.7365562 25.415696,9.519975 22.003906,9.546875 Z M21.992188,14.2675781 C21.035011,14.2575781 20.118508,14.6701031 19.462891,15.345703 C17.872659,16.873203 18.259881,19.634291 20.091797,20.775391 C21.967156,22.056991 24.716805,21.036912 25.363281,18.882812 C26.155405,16.682712 24.328273,14.1771781 21.992188,14.2675781 Z M21.994141,15.261719 L21.994141,15.263672 C22.003241,15.263972 22.012374,15.263972 22.021484,15.263672 C23.603281,15.195672 24.96797,17.067141 24.421875,18.556641 C24.418275,18.566641 24.415109,18.575938 24.412109,18.585938 C23.977613,20.060837 21.925064,20.826166 20.648438,19.947266 C20.642038,19.947266 20.635526,19.935641 20.628906,19.931641 C19.365748,19.154041 19.068673,17.092387 20.158203,16.054688 C20.163503,16.054688 20.168708,16.045016 20.173828,16.041016 C20.644343,15.553816 21.326788,15.254219 21.994141,15.261719 Z M27.259766,23.513672 C24.823309,23.513672 22.839841,25.504012 22.839844,27.945312 C22.83984,30.386712 24.823309,32.378906 27.259766,32.378906 C29.696223,32.378906 31.681646,30.386713 31.681641,27.945312 C31.681646,25.504013 29.696223,23.513672 27.259766,23.513672 Z M27.259766,24.513672 C29.154164,24.513672 30.681645,26.042812 30.681641,27.945312 C30.681645,29.847812 29.154164,31.378906 27.259766,31.378906 C25.365369,31.378906 23.839842,29.847813 23.839844,27.945312 C23.839842,26.042813 25.365369,24.513672 27.259766,24.513672 Z M28.785156,26.439453 L28.785156,26.445312 C28.6551172,26.4494408 28.5318075,26.5040894 28.441406,26.597656 L26.789062,28.259766 L26.091797,27.582031 C25.9638697,27.4553296 25.7777042,27.4071853 25.604391,27.455983 C25.4310779,27.5047806 25.2973803,27.6429848 25.2543529,27.8178199 C25.2113255,27.992655 25.2656127,28.1771227 25.396484,28.300781 L26.449219,29.320312 C26.6469766,29.5084097 26.9590291,29.5031947 27.150391,29.308594 L29.150391,27.296875 C29.2978322,27.1527764 29.3417246,26.9329607 29.2609301,26.7432884 C29.1801357,26.5536162 28.9912174,26.4329705 28.785156,26.439453 Z M14.9160156,27.46875 C14.7397706,27.46875 14.5765251,27.561691 14.4863281,27.712891 L12.1054688,31.699219 C11.9070148,32.032519 12.1472182,32.455178 12.5351562,32.455078 L24.251953,32.455078 C23.841352,32.177978 23.4874,31.830778 23.166016,31.455078 L13.4160156,31.455078 L15.1992188,28.46875 L18.660156,28.46875 C19.336317,28.47875 19.336317,27.45915 18.660156,27.46875 L14.9160156,27.46875 Z M31.423828,31.371094 C31.086685,31.780994 30.710276,32.157778 30.269531,32.455078 L31.189453,32.455078 C31.577387,32.455178 31.817595,32.032519 31.619141,31.699219 L31.423828,31.371094 Z" id="Shape" fill="#FFFFFF"></path>
                    </g>
                </g>
            </g>
        </g>
    </g>
</svg>