
<svg width="45px" height="45px" viewBox="0 0 45 45" version="1.1" xmlns="http://www.w3.org/2000/svg" xmlns:xlink="http://www.w3.org/1999/xlink">
    <g id="Page-1" stroke="none" stroke-width="1" fill="none" fill-rule="evenodd">
        <g id="Baton_Role-_Listing" transform="translate(-401.000000, -214.000000)" fill-rule="nonzero">
            <g id="All-Users" transform="translate(370.000000, 198.000000)">
                <g id="Group-Headings" transform="translate(31.000000, 16.000000)">
                    <g id="Group-2">
                        <circle id="Oval-3" fill="#005FB9" cx="22.5" cy="22.5" r="22.5"></circle>
                        <path d="M22.804878,10 C17.1806212,10 12.6097561,14.5708676 12.6097561,20.195122 C12.6097561,22.5699197 13.4253704,24.7573642 14.7896341,26.4916159 C12.5750428,27.3432141 11,29.4899441 11,32 C11.0000296,32.2963356 11.2402497,32.5365558 11.5365854,32.5365854 L22.2682927,32.5365854 C22.5646283,32.5365558 22.8048484,32.2963356 22.804878,32 C22.804878,29.248567 20.9137975,26.9321972 18.3612805,26.2820122 C19.4039525,25.7478546 20.1219512,24.6617487 20.1219512,23.4146341 C20.1219512,21.6429634 18.67418,20.195122 16.902439,20.195122 C15.5489164,20.195122 14.3836156,21.0436386 13.9092988,22.2324695 C13.7596521,21.5765025 13.6829268,20.897154 13.6829268,20.195122 C13.6829268,15.150852 17.760608,11.0731707 22.804878,11.0731707 C27.849148,11.0731707 31.9268293,15.150852 31.9268293,20.195122 C31.9268293,24.7071127 28.6585366,28.4432976 24.3643293,29.1829268 C24.0935284,29.2537067 23.9222267,29.5202909 23.9703694,29.7960176 C24.0185122,30.0717442 24.270017,30.2645051 24.5487805,30.2393293 C29.3500168,29.4123707 33,25.2259102 33,20.195122 C33,14.5708676 28.4291349,10 22.804878,10 Z M22.746189,13.4794207 C22.4697423,13.5097995 22.2623113,13.7463437 22.2682927,14.0243902 L22.2682927,20.195122 C22.2694297,20.3369975 22.3267049,20.4726494 22.4275915,20.5724085 L26.7202744,24.8650915 C26.8556705,25.0043461 27.0557442,25.0595723 27.2434028,25.0094903 C27.4310613,24.9594083 27.5770124,24.8118355 27.6250178,24.6236351 C27.6730232,24.4354346 27.6155897,24.2359833 27.4748476,24.1021341 L23.3414634,19.96875 L23.3414634,14.0243902 C23.3447923,13.8698557 23.2813254,13.7213903 23.1673165,13.6170161 C23.0533077,13.5126418 22.89983,13.4624959 22.746189,13.4794207 Z M16.902439,21.2682927 C18.0941763,21.2682927 19.0487805,22.2229585 19.0487805,23.4146341 C19.0487805,24.6064171 18.0941892,25.5609756 16.902439,25.5609756 C15.7106886,25.5609756 14.7560976,24.6064171 14.7560976,23.4146341 C14.7560976,22.2229585 15.7107014,21.2682927 16.902439,21.2682927 Z M16.902439,27.1707317 C19.3929946,27.1707317 21.4053365,29.0460171 21.6730183,31.4634146 L12.1318598,31.4634146 C12.3995415,29.0460171 14.4118845,27.1707317 16.902439,27.1707317 Z" id="Shape" fill="#FFFFFF"></path>
                    </g>
                </g>
            </g>
        </g>
    </g>
</svg>