<svg xmlns="http://www.w3.org/2000/svg" width="55" height="55" viewBox="0 0 55 55">
    <g fill="none" fill-rule="evenodd" transform="translate(1 1)">
        <circle cx="26.5" cy="26.5" r="26.5" fill="#FFF" fill-opacity=".5" stroke="#54698D"/>
        <path fill="#10A5DA" d="M38.267 16H17.733c-.403 0-.733.3-.733.667v.666c0 .367.33.667.733.667h20.534c.403 0 .733-.3.733-.667v-.666c0-.367-.33-.667-.733-.667zm0 19H17.733c-.403 0-.733.3-.733.667v.666c0 .367.33.667.733.667h20.534c.403 0 .733-.3.733-.667v-.666c0-.367-.33-.667-.733-.667zm-11.934-2a.678.678 0 0 0 .667-.686V21.686c0-.377-.3-.686-.667-.686h-.666a.678.678 0 0 0-.667.686v10.628c0 .377.3.686.667.686h.666zm6 0a.678.678 0 0 0 .667-.686V21.686c0-.377-.3-.686-.667-.686h-.666a.678.678 0 0 0-.667.686v10.628c0 .377.3.686.667.686h.666zm5.445-12h-.556c-.122 0-.222.309-.222.686v10.628c0 .377.1.686.222.686h.556c.122 0 .222-.309.222-.686V21.686c0-.377-.1-.686-.222-.686zm-2 0h-.556c-.122 0-.222.309-.222.686v10.628c0 .377.1.686.222.686h.556c.122 0 .222-.309.222-.686V21.686c0-.377-.1-.686-.222-.686zm-7 0h-.556c-.122 0-.222.309-.222.686v10.628c0 .377.1.686.222.686h.556c.122 0 .222-.309.222-.686V21.686c0-.377-.1-.686-.222-.686zm-5 0h-.556c-.122 0-.222.309-.222.686v10.628c0 .377.1.686.222.686h.556c.122 0 .222-.309.222-.686V21.686c0-.377-.1-.686-.222-.686zm-3 0h-.556c-.122 0-.222.309-.222.686v10.628c0 .377.1.686.222.686h.556c.122 0 .222-.309.222-.686V21.686c0-.377-.1-.686-.222-.686zm-2.556 12h.556c.122 0 .222-.309.222-.686V21.686c0-.377-.1-.686-.222-.686h-.556c-.122 0-.222.309-.222.686v10.628c0 .377.1.686.222.686z"/>
    </g>
</svg>
